…
glance(lm_fit)
#> # A tibble: 1 x 12
#>   r.squared adj.r.squared  sigma statistic p.value    df logLik    AIC    BIC
#>       <dbl>         <dbl>  <dbl>     <dbl>   <dbl> <dbl>  <dbl>  <dbl>  <dbl>
#> 1     0.822         0.816 0.0757      140.       0    70  2592. -5040. -4630.
#> # … with 3 more variables: deviance <dbl>, df.residual <int>, nobs <int>

```


* The model coefficients can be extracted using the `tidy()` method:

```{r eval = FALSE}
tidy(lm_fit)
#> # A tibble: 71 x 5
#>   term                       estimate std.error statistic   p.value
#>   <chr>                         <dbl>     <dbl>     <dbl>     <dbl>
#> 1 (Intercept)                -0.531    0.296        -1.79 7.32e-  2
#> 2 Gr_Liv_Area                 0.648    0.0161       40.3  1.46e-264
#> 3 Year_Built                  0.00194  0.000139     13.9  2.69e- 42
#> 4 Neighborhood_College_Creek -0.0898   0.0332       -2.71 6.83e-  3
#> 5 Neighborhood_Old_Town      -0.0516   0.0129       -4.01 6.20e-  5
#> 6 Neighborhood_Edwards       -0.153    0.0274       -5.57 2.91e-  8
#> # … with 65 more rows
```
…
tidy(ames_rec_prepped, id = "my_id")
#> # A tibble: 1 x 3
#>   terms        base id   
#>   <chr>       <dbl> <chr>
#> 1 Gr_Liv_Area    10 my_id

```


* The `tidy()` method can be called with the number identifier as well, if we know which step in the recipe we need:

```{r eval = FALSE}

tidy(ames_rec_prepped, number = 2)
#> # A tibble: 20 x 3
#>   terms        retained           id         
#>   <chr>        <chr>              <chr>      
#> 1 Neighborhood North_Ames         other_6Nta6
#> 2 Neighborhood College_Creek      other_6Nta6
#> 3 Neighborhood Old_Town           other_6Nta6
#> 4 Neighborhood Edwards            other_6Nta6
#> 5 Neighborhood Somerset           other_6Nta6
#> 6 Neighborhood Northridge_Heights other_6Nta6
#> # … with 14 more rows
…
